{
    "profiles": {
        "Otus.Teaching.Pcf.GivingToCustomer.IntegrationTests": {
            "commandName": "Project",
            "launchBrowser": true,
            "environmentVariables": {
                "ASPNETCORE_ENVIRONMENT": "Development"
            },
            "applicationUrl": "https://localhost:54292;http://localhost:54293"
        }
    }
}